…
The downloaded source packages are in
	‘C:\Users\Koustubh\AppData\Local\Temp\RtmpQBXyqq\downloaded_packages’
> library(tidytext)
> Sentiments
Error: object 'Sentiments' not found
> sentiments
# A tibble: 6,786 x 2
   word        sentiment
   <chr>       <chr>    
 1 2-faces     negative 
 2 abnormal    negative 
 3 abolish     negative 
 4 abominable  negative 
 5 abominably  negative 
 6 abominate   negative 
 7 abomination negative 
 8 abort       negative 
 9 aborted     negative 
10 aborts      negative 
# ... with 6,776 more rows
> get_sentiments("bing")
# A tibble: 6,786 x 2
   word        sentiment
   <chr>       <chr>    
 1 2-faces     negative 
 2 abnormal    negative 
 3 abolish     negative 
 4 abominable  negative 
 5 abominably  negative 
 6 abominate   negative 
 7 abomination negative 
 8 abort       negative 
 9 aborted     negative 
10 aborts      negative 
# ... with 6,776 more rows
…
> tidy_data <- austen_books() %>%
+   group_by(book) %>%
+   mutate(linenumber = row_number(),
+          chapter = cumsum(str_detect(text, regex("^chapter [\\divxlc]", 
+                                                  ignore_case = TRUE)))) %>%
+   ungroup() %>%
+   unnest_tokens(word, text)
> positive_senti <- get_sentiments("bing") %>%
+   filter(sentiment == "positive")
> tidy_data %>%
+   filter(book == "Emma") %>%
+   semi_join(positive_senti) %>%
+   count(word, sort = TRUE)
Joining, by = "word"
# A tibble: 668 x 2
   word         n
   <chr>    <int>
 1 well       401
 2 good       359
 3 great      264
 4 like       200
 5 better     173
 6 enough     129
 7 happy      125
 8 love       117
 9 pleasure   115
10 right       92
# ... with 658 more rows
…
